{
  "errExpiredOrWrongCaptcha": "Wrong answer or expired captcha.",
  "logGlobalRoleChange": {
    "userPiece": "User {$login}",
    "adminPiece": "A sysadmin using the server's terminal",
    "mainPiece": " changed the global role of user {$login} to {$role}."
  },
  "guiNoPreferredLanguage": "None",
  "errInvalidRole": "Invalid role.",
  "errDeniedPermissionLevel": "You are not allowed to grant this level of permission to users.",
  "errSelfRoleChange": "You cannot change your own role.",
  "errUserNotFound": "User not found.",
  "errDeniedChangeUser": "You are not allowed to change this user's role.",
  "errNoNewAccounts": "Account creation is disabled.",
  "errInvalidLogin": "Invalid login.",
  "errLoginInUse": "Login is already in use.",
  "errBoardBannerLimit": "Banner limit reached.",
  "errLoginFailed": "Login failed.",
  "errInvalidAccount": "Invalid account.",
  "errRequestTooBig": "Request size limit exceeded.",
  "subPasswordRequest": "Password reset request",
  "errAccountNotFound": "Account not found.",
  "errNoEmailForAccount": "Account doesn't have an email associated to it.",
  "errPendingRequest": "Pending request to be expired at {$expiration}.",
  "subPasswordReset": "Password reset",
  "errInvalidRequest": "Invalid recovery request.",
  "errPasswordMismatch": "Confirmation does not match.",
  "errIncorrectPassword": "Incorrect current password.",
  "miscAllBoards": "All boards",
  "errBoardNotFound": "Board not found.",
  "errDeniedChangeBoardSettings": "You are not allowed to change this board's settings.",
  "logTransferBoard": "User {$actor} transferred board /{$board}/ to {$login}.",
  "errDeniedBoardTransfer": "You are not allowed to transfer this board.",
  "errOwnerVolunteer": "You cannot set the board owner as a volunteer.",
  "errDeniedSetVolunteer": "You are not allowed to set volunteers on this board.",
  "errDeniedManageBoard": "You are not allowed to manage this board.",
  "errDeniedBoardCreation": "You do not have clearance to create boards.",
  "errInvalidUri": "Invalid uri.",
  "errUriInUse": "Uri already in use.",
  "errNoFiles": "No files sent.",
  "errNotAnImage": "File is not an image.",
  "errBannerNotFound": "Banner not found.",
  "errDeniedBoardMod": "You are not allowed to moderate boards.",
  "errTextBoard": "You are not allowed to post files on textboards.",
  "logPostingDeletion": {
    "uploadStartPiece": "User {$login} deleted the files of the following",
    "startPiece": "User {$login} deleted the following",
    "threadPiece": " threads:",
    "threadAndPostPiece": " and the following",
    "postPiece": " posts:",
    "endPiece": " from board /{$board}/."
  },
  "logBoardDeletion": "User {$login} deleted board /{$board}/.",
  "errDeniedBoardDeletion": "You are not allowed to delete this board.",
  "titDefaultChanTitle": "My chan",
  "guiTypeBan": "Ban",
  "guiTypeBanLift": "Ban lift",
  "guiTypeDeletion": "Posting deletion",
  "guiTypeReportClosure": "Report closures",
  "guiTypeGlobalRoleChange": "Global role change",
  "guiTypeBoardDeletion": "Board deletion",
  "guiTypeBoardTransfer": "Board ownership transfer",
  "guiTypeHashBan": "Hash ban",
  "guiTypeFileDeletion": "File deletion",
  "guiTypeHashBanLift": "Hash ban lift",
  "guiWeekDays": [
    "Sun",
    "Mon",
    "Tue",
    "Wed",
    "Thu",
    "Fri",
    "Sat"
  ],
  "guiDateFormat": "{$day}.{$month}.{$year}",
  "titBanners": "Banners of /{$board}/",
  "titBan": "b& :^)",
  "titError": "Error",
  "titBansManagement": "Bans",
  "titClosedReports": "Closed reports",
  "titBoardManagement": "Management of /{$board}/",
  "titGlobalManagement": "Global management",
  "titAccount": "Welcome, {$login}",
  "titLogs": "{$board} logs",
  "titBoardFilters": "Filters for /{$board}/",
  "titBoardModeration": "Board moderation of /{$board}/",
  "titBoards": "Boards",
  "titNoCookieCaptcha": "No cookie captcha",
  "titRangeBans": "Range bans",
  "titHashBans": "Hash bans",
  "titNotFound": "File not found",
  "titLogin": "Login, register or reset password",
  "titCatalog": "/{$board}/ - Catalog",
  "errBlankParameter": "Blank parameter: {$parameter}, the parameter is {$reason}.",
  "miscReasonNotPresent": "not present",
  "miscReasonNnull": "null",
  "miscReasonUndefined": "undefined",
  "miscReasonNoLength": "empty",
  "miscRoles": [
    "Root",
    "Admin",
    "Global volunteer",
    "Global janitor",
    "User"
  ],
  "guiPruningModes": [
    "No pruning",
    "Prune orphans",
    "Weekly pruning"
  ],
  "errDeniedGlobalManagement": "Your global role does not allow you to retrieve global management data.",
  "miscDefaultBanMessage": "(USER WAS BANNED FOR THIS POST)",
  "miscDefaultAnonymous": "Anonymous",
  "miscBoardOwner": "Board owner",
  "miscBoardVolunteer": "Board volunteer",
  "errThreadNotFound": "Thread not found.",
  "errThreadLocked": "You cannot reply to a locked thread.",
  "errDeniedBoardBanManagement": "You are not allowed to manage bans for this board.",
  "errDeniedGlobalBanManagement": "You are not allowed to manage global bans.",
  "errDeniedBoardRangeBanManagement": "You are not allowed to manage range bans for this board.",
  "errDeniedGlobalRangeBanManagement": "You are not allowed to manage global range bans.",
  "errDeniedBoardASNBanManagement": "You are not allowed to manage ASN bans for this board.",
  "errDeniedGlobalASNBanManagement": "You are not allowed to manage global ASN bans.",
  "errDeniedBoardHashBansManagement": "You are not allowed to manage hash bans for this board.",
  "errDeniedGlobalHashBansManagement": "You are not allowed to manage global hash bans.",
  "errDeniedBoardReportManagement": "You are not allowed to manage reports for this board.",
  "errDeniedGlobalReportManagement": "You are not allowed to manage global reports.",
  "errBlockedTor": "TOR users are blocked.",
  "logReportClosure": {
    "startPiece": "User {$login} closed a ",
    "globalPiece": "global ",
    "midPiece": "report for ",
    "postPiece": "post {$post} on ",
    "finalPiece": "thread {$thread} on board /{$board}/."
  },
  "errReportNotFound": "Report not found.",
  "errReportAlreadyClosed": "Report is already closed.",
  "logPostingBan": {
    "startPiece": "User {$login} ",
    "globalPiece": "globally ",
    "midPieceWarning": "warned the posters of the following ",
    "midPiece": "banned the posters of the following ",
    "threadPiece": "threads: ",
    "threadAndPostPiece": " and the following ",
    "postPiece": "posts: ",
    "expirationPiece": " until {$expiration}",
    "permanentExpirationPiece": " permanently",
    "boardPiece": " from board /{$board}/",
    "endPiece": " with reason \"{$reason}\"."
  },
  "logBanLift": {
    "startPiece": "User {$login} lifted a ",
    "globalBanPiece": "global ban ",
    "boardBanPiece": "ban on board {$board} ",
    "finalPiece": "with id {$ban} set to expire at {$expiration}.",
    "unknownPiece": "unknown type of ban with id {$ban}."
  },
  "errDeniedThreadManagement": "You are not allowed to change thread settings in this board.",
  "logLiftHashBan": {
    "startPiece": "User {$login} lifted ",
    "globalPiece": "a global hash ban ",
    "boardPiece": "a hash ban on board {$board} ",
    "finalPiece": "for hash {$hash}."
  },
  "msgChangedPassword": "Password changed.",
  "msgAccountSettingsSaved": "Settings saved.",
  "msgThreadSettingsSaved": "Thread settings saved.",
  "msgReportsClosed": "Reports closed.",
  "msgContentReported": "Content reported.",
  "msgUsersBanned": "Users banned.",
  "msgContentDeleted": "{$threads} threads and {$posts} posts were successfully deleted.",
  "msgBannerCreated": "Banner created.",
  "msgBoardCreated": "Board created.",
  "msgFilterCreated": "Filter created.",
  "msgBannerDeleted": "Banner deleted.",
  "msgBoardDeleted": "Board deleted.",
  "msgFilterDeleted": "Filter removed.",
  "msgBanLifted": "Ban lifted.",
  "msgHashBanLifted": "Hash ban lifted.",
  "msgLoginSuccessful": "Login successful.",
  "msgLogout": "You have been logged out.",
  "msgHashBanCreated": "Hash ban created.",
  "msgRangeBanCreated": "Range ban created.",
  "msgPasswordReset": "The new password was sent to your e-mail.",
  "msgAccountCreated": "Account created.",
  "msgRequestCreated": "Request created, check your e-mail.",
  "msgBoardSettingsSaved": "Settings saved.",
  "msgUserRoleChanged": "User role changed.",
  "msgVolunteerAdded": "Volunteer added.",
  "msgVolunteerRemoved": "Volunteer removed.",
  "msgCaptchaSolved": "Captcha solved.",
  "msgBoardTransferred": "Board ownership transferred.",
  "errOnlyCssAllowed": "Only css files are allowed.",
  "errDeniedCssManagement": "You are not allowed to set a custom css for this board.",
  "msgCssSet": "CSS uploaded.",
  "msgCssDeleted": "CSS deleted.",
  "errFileTooLarge": "A file sent was too large.",
  "guiOmittedInfo": {
    "startPiece": "{$postAmount} post ",
    "startPiecePlural": "{$postAmount} posts ",
    "filesPiece": "and {$imageAmount} image ",
    "filesPiecePlural": "and {$imageAmount} images ",
    "finalPiece": "omitted."
  },
  "errDeniedRuleManagement": "You are not allowed to manage rules for this board.",
  "titRuleManagement": "Rule management",
  "errRuleLimitReached": "This board has already reached the maximum amount of rules allowed.",
  "msgRuleCreated": "Rule added.",
  "msgRuleDeleted": "Rule deleted.",
  "errInvalidIndex": "Invalid index.",
  "titRules": "Rules of /{$board}/",
  "titMaintenance": "Maintenance",
  "errDeniedMultipleReports": "You may only report one posting at once.",
  "errThreadAutoLocked": "This thread has reached its limit and is auto-locked.",
  "errMaxFiltersReached": "This board has already reached the maximum amount of filters allowed.",
  "errMaxBoardVolunteers": "This board has already reached the maximum amount of volunteers allowed.",
  "errDeniedEdit": "You are not allowed to edit this posting.",
  "msgPostingEdited": "Posting edited.",
  "errPostingNotFound": "Posting could not be found.",
  "titEdit": "Edit",
  "guiEditInfo": "Edited last time by {$login} on {$date}.",
  "guiOpen": "Open",
  "errBannerTooLarge": "The selected banner is too large.",
  "titFlagManagement": "Flag management",
  "errDeniedFlagManagement": "You are not allowed to manage this board's flags.",
  "msgFlagCreated": "Flag created.",
  "errRepeatedFlag": "There is already a flag with this name in this board.",
  "errFlagTooLarge": "File size exceeds the limit for flags.",
  "errFlagNotFound": "The specified flag could not be found.",
  "msgFlagDeleted": "Flag deleted.",
  "guiUnlimited": "limitless",
  "guiNoFlag": "No flag",
  "errFlood": "Flood detected, wait {$time} more seconds.",
  "errFormatNotAllowed": "A file had a format that is not allowed by the server.",
  "titGlobalSettings": "Global settings",
  "errDeniedGlobalSettings": "You are not allowed to edit the global settings.",
  "msgSavedGlobalSettings": "Global settings saved.",
  "errBoardLocked": "This board is locked for thread creation because it exceeded its hourly limit for thread creation. Try again later.",
  "errDeniedSpoilerManagement": "You are not allowed to manage the custom spoiler of this board.",
  "msgSpoilerSet": "Custom spoiler saved.",
  "msgSpoilerDeleted": "Custom spoiler deleted.",
  "guiTorLevels": [
    "No posting",
    "Post without files",
    "Post with files"
  ],
  "errDeniedIpDeletion": "You are not allowed to delete all posts from a single ip.",
  "msgDeletedFromIp": "Posts from ip deleted.",
  "errInvalidRange": "Invalid range informed.",
  "errNoPassword": "No password provided.",
  "errUnloadedAddon": "The requested addon is not enabled.",
  "titGlobalBanners": "Global banners",
  "errDeniedGlobalBannerManagement": "You are not allowed to manage global banners.",
  "titHashBan": "Banned file",
  "msgJsSet": "Custom javascript uploaded.",
  "msgJsDeleted": "Custom javascript deleted.",
  "errNoCustomJs": "Custom javascript is not enabled.",
  "errDeniedJsManagement": "You are not allowed to manage the custom js of this board.",
  "errOnlyJsAllowed": "Only javascript files are allowed.",
  "errTorFilesBlocked": "TOR users are not allowed to post files.",
  "msgThreadTransferred": "Thread transferred.",
  "errDeniedThreadTransfer": "You are not allowed to transfer a thread between boards.",
  "logThreadTransfer": "User {$login} transferred thread {$thread} from /{$board}/ to /{$boardDestination}/.",
  "guiTypeThreadTransfer": "Thread transfer",
  "guiTypeThreadMerge": "Thread merge",
  "msgContentSpoilered": "Files spoilered.",
  "errDeniedSpoilered": "You are not allowed to spoil existing files.",
  "msgErrThreadFileRequired": "This board requires at least one file when creating threads.",
  "errBoardDelConfirmation": "You must confirm that you wish to delete this board.",
  "errInvalidIp": "Invalid ip.",
  "guiBypassModes": [
    "Disabled",
    "Enabled",
    "Mandatory"
  ],
  "titBlockbypass": "Block bypass",
  "errDisabledBypass": "Block bypass is not enabled.",
  "msgBypassRenewed": "Block bypass renewed.",
  "titLogPage": "Logs for {$date}",
  "subLockedAccount": "Account locked",
  "msgAccountUnlocked": "Account unlocked.",
  "errInvalidToken": "Invalid unlock token.",
  "titMultiboard": "Multi-board",
  "msgBanAppealed": "Ban appealed.",
  "errBanNotFound": "The ban could not be found.",
  "logAppealDenied": "User {$login} denied an appeal for ban {$id}.",
  "msgAppealDenied": "Appeal denied.",
  "guiTypeAppealDeny": "Appeal deny",
  "errCouldNotMeasureImage": "Could not get image's dimensions.",
  "errNoFileAndMessage": "Either a message or a file is required.",
  "errMessageAlreadyPosted": "R9K prevented your message from being posted.",
  "errFileAlreadyPosted": "R9K prevented at least one of your files from being posted.",
  "errDuplicateFileBeingPosted": "R9K prevented you from posting the same file multiple times at once.",
  "errFileTooLargeForBoard": "You tried to upload a file that is larger than the allowed size for this board.",
  "errInvalidMimeForBoard": "You tried to upload a file with an invalid format for this board.",
  "titGraphs": "Available daily graphs",
  "guiCaptchaModes": [
    "No captcha",
    "Only for threads",
    "For all posts"
  ],
  "msgBoardSpecialSettingsSaved": "Board special settings saved.",
  "titMediaManagement": "Media management",
  "errDeniedMediaManagement": "You are not allowed to manage media files.",
  "msgMediaDeleted": "Media files deleted.",
  "errDeniedBoardIpDeletion": "You are not allowed to delete posts based on ips on this board.",
  "errSpammer": "Your ip was recognized as a known spammer.",
  "errNoReportsInformed": "No reports were informed.",
  "errDeniedLanguageManagement": "You are not allowed to manage alternative languages.",
  "titLanguages": "Alternative languages",
  "msgLanguageAdded": "New language added.",
  "msgLanguageDeleted": "Language deleted.",
  "titAccounts": "Accounts",
  "errDeniedAccountManagement": "You are not allowed to manage user accounts.",
  "titAccountManagement": "Account management - {$account}",
  "msgAccountAdded": "Account added.",
  "errNoAccountDeletionConfirmation": "You must confirm that you wish to delete this account.",
  "errNotAllowedToDeleteAccount": "You may only delete accounts with global roles greater than yours.",
  "msgAccountDeleted": "Account deleted.",
  "guiTorPostingLevels": [
    "No posting allowed",
    "Allowed to post with block bypass",
    "Allowed to post normally"
  ],
  "titSocketManagement": "Unix socket management",
  "errNotAllowedToManageSocket": "You are not allowed to manage the Unix socket.",
  "msgSocketRestarted": "Unix socket restarted.",
  "miscSocketOk": "Ok",
  "errLockedBoard": "This board is locked for posting.",
  "msgMassBanned": "Mass ban applied.",
  "errNotAllowedToMassBan": "You are not allowed to mass ban.",
  "errMediaNotFound": "Media entry could not be found.",
  "titMediaDetails": "Media details",
  "errHashBanLimit": "This board already reached the hash ban limit.",
  "logMediaDeletion": "User {$login} requested deletion of the following files: {$identifiers}.",
  "guiTypeMediaDeletion": "Media deletion",
  "logFilePruning": "Pruning the following files: {$identifiers}.",
  "guiTypeFilePruning": "File pruning",
  "msgConfirmationSent": "Confirmation e-mail sent. The provided link will be valid for 24 hours.",
  "subEmailConfirmation": "LynxChan e-mail confirmation",
  "errPendingConfirmation": "Pending confirmation to be expired at {$expiration}.",
  "msgEmailConfirmed": "Your e-mail has been confirmed.",
  "errInvalidConfirmation": "Invalid confirmation request.",
  "errNotConfirmed": "You haven't confirmed your e-mail yet.",
  "subReportNotify": "Report notification",
  "errDisabledLatestPostings": "The latest postings feature is disabled.",
  "titLatestPostings": "Latest postings",
  "errNoIpDeletionConfirmation": "You must confirm that you wish to perform this deletion by IP.",
  "errGeneralBanLimit": "This board reached the general ban limit of this type.",
  "msgThreadArchived": "Thread archived.",
  "errNotAllowedToArchive": "You are not allowed to archive this thread.",
  "errArchiveConfirmation": "You must confirm that you wish to archive this thread.",
  "titArchives": "Archives",
  "errReferralMismatch": "Your referral doesn't match the host.",
  "errCaptchaLimitExceeded": "You have requested too many captchas, wait a minute before trying again.",
  "errTotalFileLimitExceeded": "The site has reached its total file capacity.",
  "errAuthLimitExceeded": "You have exceeded the maximum limit of authentications, wait before trying again.",
  "titAsnBans": "ASN bans",
  "msgAsnBanCreated": "ASN ban created.",
  "errInvalidASN": "Invalid ASN.",
  "guiBanDescriptionAsn": "Your ASN {$asn} was banned from {$board}.",
  "guiBanDescriptionRange": "Your range {$range} was banned from {$board}.",
  "guiBanDescription": "You are banned from {$board}.",
  "guiWarningDescription": "You have been warned on {$board}.",
  "msgBoardUnlocked": "Board auto-lock reset.",
  "errOwnsBoards": "You can't delete your own account if you own any boards.",
  "guiGlobalLogsIndex": "Global",
  "guiRedactedName": "REDACTED",
  "titGlobalFilters": "Global filters",
  "errDeniedOffenseHistory": "You are not allowed to search for this offense history.",
  "titOffenseRecord": "Offense record",
  "errDeniedSingleDeletion": "You are not allowed to delete single files from this posting.",
  "msgFileUnlinked": "File unlinked from posting.",
  "titOpenReports": "Open reports",
  "titAppealedBansManagement": "Appealed bans",
  "msgThreadMerged": "Thread merged.",
  "errSourceThreadNotFound": "Source thread not found.",
  "errDestinationThreadNotFound": "Destination thread not found.",
  "guiCaptchaSecurity": [
    "Easy",
    "Moderate",
    "Hard"
  ],
  "errHourlyLimit": "You exceeded the hourly use rate of your bypass.",
  "errBypassNotFound": "Bypass not found.",
  "msgBypassValidated": "Bypass was validated.",
  "logThreadMerge": "Thread {$origin} was merged into thread {$destination}.",
  "errInvalidWsPort": "Invalid wsPort or wssPort, you can't use the same port used to listen to http/https.",
  "msgRuleEdited": "Rule edited.",
  "errOnlyConfirmedEmail": "You need to confirm your e-mail to be able to create boards.",
  "errNonWhiteListedEmail": "Your e-mail provider is not on the whitelist. Allowed domains: {$domains}."
}
